<mxfile host="app.diagrams.net" modified="2021-11-22T09:47:56.523Z" agent="5.0 (Windows NT 6.1; Win64; x64) AppleWebKit/537.36 (KHTML, like Gecko) Chrome/95.0.4638.69 Safari/537.36" etag="WXh-OYFKPIEjOAYrSi5W" version="15.7.3" type="gitlab">
  <diagram id="0CAHsovM_IbayQP2s3lU" name="第 1 页">
    <mxGraphModel dx="981" dy="532" grid="1" gridSize="10" guides="1" tooltips="1" connect="1" arrows="1" fold="1" page="1" pageScale="1" pageWidth="827" pageHeight="1169" math="0" shadow="0">
      <root>
        <mxCell id="0" />
        <mxCell id="1" parent="0" />
        <mxCell id="2-wEyksejYl-fktSFOYj-4" value="" style="swimlane;startSize=0;" parent="1" vertex="1">
          <mxGeometry x="80" y="140" width="680" height="490" as="geometry">
            <mxRectangle x="80" y="140" width="50" height="40" as="alternateBounds" />
          </mxGeometry>
        </mxCell>
        <mxCell id="2-wEyksejYl-fktSFOYj-5" value="ui" style="rounded=1;whiteSpace=wrap;html=1;" parent="2-wEyksejYl-fktSFOYj-4" vertex="1">
          <mxGeometry x="50" y="60" width="270" height="60" as="geometry" />
        </mxCell>
        <mxCell id="2-wEyksejYl-fktSFOYj-6" value="spring" style="rounded=1;whiteSpace=wrap;html=1;" parent="2-wEyksejYl-fktSFOYj-4" vertex="1">
          <mxGeometry x="50" y="190" width="190" height="70" as="geometry" />
        </mxCell>
        <mxCell id="2-wEyksejYl-fktSFOYj-7" value="苍穹" style="rounded=1;whiteSpace=wrap;html=1;" parent="2-wEyksejYl-fktSFOYj-4" vertex="1">
          <mxGeometry x="40" y="365" width="270" height="80" as="geometry" />
        </mxCell>
        <mxCell id="2-wEyksejYl-fktSFOYj-8" value="" style="rounded=1;whiteSpace=wrap;html=1;" parent="2-wEyksejYl-fktSFOYj-4" vertex="1">
          <mxGeometry x="520" y="60" width="120" height="400" as="geometry" />
        </mxCell>
        <mxCell id="2-wEyksejYl-fktSFOYj-9" value="数据库" style="shape=cylinder3;whiteSpace=wrap;html=1;boundedLbl=1;backgroundOutline=1;size=15;" parent="2-wEyksejYl-fktSFOYj-4" vertex="1">
          <mxGeometry x="550" y="90" width="60" height="60" as="geometry" />
        </mxCell>
        <mxCell id="2-wEyksejYl-fktSFOYj-10" value="redis" style="ellipse;whiteSpace=wrap;html=1;" parent="2-wEyksejYl-fktSFOYj-4" vertex="1">
          <mxGeometry x="545" y="200" width="70" height="40" as="geometry" />
        </mxCell>
        <mxCell id="2-wEyksejYl-fktSFOYj-11" value="ELK" style="rounded=1;whiteSpace=wrap;html=1;" parent="2-wEyksejYl-fktSFOYj-4" vertex="1">
          <mxGeometry x="545" y="290" width="70" height="40" as="geometry" />
        </mxCell>
        <mxCell id="2-wEyksejYl-fktSFOYj-12" value="apllo" style="ellipse;whiteSpace=wrap;html=1;aspect=fixed;" parent="2-wEyksejYl-fktSFOYj-4" vertex="1">
          <mxGeometry x="555" y="380" width="50" height="50" as="geometry" />
        </mxCell>
        <mxCell id="2-wEyksejYl-fktSFOYj-19" value="" style="shape=flexArrow;endArrow=classic;startArrow=classic;html=1;rounded=0;entryX=0.181;entryY=1.033;entryDx=0;entryDy=0;exitX=0.25;exitY=0;exitDx=0;exitDy=0;entryPerimeter=0;" parent="2-wEyksejYl-fktSFOYj-4" source="2-wEyksejYl-fktSFOYj-6" target="2-wEyksejYl-fktSFOYj-5" edge="1">
          <mxGeometry width="100" height="100" relative="1" as="geometry">
            <mxPoint x="330" y="290" as="sourcePoint" />
            <mxPoint x="430" y="190" as="targetPoint" />
          </mxGeometry>
        </mxCell>
        <mxCell id="2-wEyksejYl-fktSFOYj-20" value="" style="shape=flexArrow;endArrow=classic;startArrow=classic;html=1;rounded=0;entryX=0.25;entryY=1;entryDx=0;entryDy=0;exitX=0.213;exitY=0;exitDx=0;exitDy=0;exitPerimeter=0;" parent="2-wEyksejYl-fktSFOYj-4" source="2-wEyksejYl-fktSFOYj-7" target="2-wEyksejYl-fktSFOYj-6" edge="1">
          <mxGeometry width="100" height="100" relative="1" as="geometry">
            <mxPoint x="70" y="360" as="sourcePoint" />
            <mxPoint x="170" y="260" as="targetPoint" />
          </mxGeometry>
        </mxCell>
        <mxCell id="2-wEyksejYl-fktSFOYj-21" value="" style="shape=flexArrow;endArrow=classic;startArrow=classic;html=1;rounded=0;entryX=0.867;entryY=1.067;entryDx=0;entryDy=0;entryPerimeter=0;exitX=0.911;exitY=-0.012;exitDx=0;exitDy=0;exitPerimeter=0;" parent="2-wEyksejYl-fktSFOYj-4" source="2-wEyksejYl-fktSFOYj-7" target="2-wEyksejYl-fktSFOYj-5" edge="1">
          <mxGeometry width="100" height="100" relative="1" as="geometry">
            <mxPoint x="270" y="290" as="sourcePoint" />
            <mxPoint x="370" y="190" as="targetPoint" />
          </mxGeometry>
        </mxCell>
        <mxCell id="2-wEyksejYl-fktSFOYj-22" value="" style="endArrow=classic;startArrow=classic;html=1;rounded=0;entryX=0;entryY=0.25;entryDx=0;entryDy=0;exitX=1;exitY=0.5;exitDx=0;exitDy=0;" parent="2-wEyksejYl-fktSFOYj-4" source="2-wEyksejYl-fktSFOYj-6" target="2-wEyksejYl-fktSFOYj-8" edge="1">
          <mxGeometry width="50" height="50" relative="1" as="geometry">
            <mxPoint x="310" y="280" as="sourcePoint" />
            <mxPoint x="360" y="230" as="targetPoint" />
          </mxGeometry>
        </mxCell>
        <mxCell id="2-wEyksejYl-fktSFOYj-23" value="" style="endArrow=classic;startArrow=classic;html=1;rounded=0;entryX=0;entryY=0.663;entryDx=0;entryDy=0;entryPerimeter=0;exitX=1;exitY=0.5;exitDx=0;exitDy=0;" parent="2-wEyksejYl-fktSFOYj-4" source="2-wEyksejYl-fktSFOYj-7" target="2-wEyksejYl-fktSFOYj-8" edge="1">
          <mxGeometry width="50" height="50" relative="1" as="geometry">
            <mxPoint x="310" y="280" as="sourcePoint" />
            <mxPoint x="360" y="230" as="targetPoint" />
          </mxGeometry>
        </mxCell>
      </root>
    </mxGraphModel>
  </diagram>
</mxfile>
